Building intuition into popgen concepts and simulation-based inference
…
Use the ts_table function to inspect the low-level table-based representation of a tree sequence. For instance, you can get the table of nodes with ts_table(ts, "nodes"), edges with ts_table(ts, "edges"), and do the same thing for “individuals”, “mutations”, and “sites”. Does your tree sequence contain any mutations? If not, why?

Click to see the solution

# slendr provides a helper function which allows access to all the low-level
# components of every tree-sequence object
ts_table(ts, "nodes")

# A tibble: 104,970 × 5
   node_id    ind_id pop_id  time time_tskit
     <int> <int[1d]>  <int> <dbl>      <dbl>
 1       0         0      0     0          0
 2       1         0      0     0          0
 3       2         1      0     0          0
 4       3         1      0     0          0
 5       4         2      0     0          0
 6       5         2      0     0          0
 7       6         3      0     0          0
 8       7         3      0     0          0
 9       8         4      0     0          0
10       9         4      0     0          0
# ℹ 104,960 more rows

ts_table(ts, "edges")

# A tibble: 134,477 × 5
      id child parent  left   right
   <dbl> <int>  <int> <dbl>   <dbl>
 1     0 12751  48000     0 1000000
 2     1 26026  48000     0 1000000
 3     2 20487  48001     0 1000000
 4     3 31110  48001     0 1000000
 5     4 18235  48002     0 1000000
 6     5 27057  48002     0 1000000
 7     6 18538  48003     0 1000000
 8     7 35239  48003     0 1000000
 9     8 21605  48004     0 1000000
10     9 23913  48004     0 1000000
# ℹ 134,467 more rows

ts_table(ts, "individuals")

# A tibble: 24,000 × 5
   ind_id  time    pop_id time_tskit sampled
    <dbl> <dbl> <int[1d]>  <dbl[1d]> <lgl>  
 1      0     0         0          0 TRUE   
 2      1     0         0          0 TRUE   
 3      2     0         0          0 TRUE   
 4      3     0         0          0 TRUE   
 5      4     0         0          0 TRUE   
 6      5     0         0          0 TRUE   
 7      6     0         0          0 TRUE   
 8      7     0         0          0 TRUE   
 9      8     0         0          0 TRUE   
10      9     0         0          0 TRUE   
# ℹ 23,990 more rows
…
[1] 24000

# This function returns a table similar to the one produced by `ts_table(ts, "nodes")`
# above, except that it contains additional slendr metadata (names of individuals
# belonging to each node, spatial coordinates of nodes for spatial models, etc.).
# It's a bit more useful for analyzing tree-sequence data than the "low-level" functions.
ts_nodes(ts)

# A tibble: 104,970 × 8
   name  pop   ind_id node_id  time time_tskit sampled pop_id
   <chr> <fct>  <dbl>   <int> <dbl>      <dbl> <lgl>    <int>
 1 AFR_1 AFR     5000   10000     0          0 TRUE         1
 2 AFR_1 AFR     5000   10001     0          0 TRUE         1
 3 AFR_2 AFR     5001   10002     0          0 TRUE         1
 4 AFR_2 AFR     5001   10003     0          0 TRUE         1
 5 AFR_3 AFR     5002   10004     0          0 TRUE         1
 6 AFR_3 AFR     5002   10005     0          0 TRUE         1
 7 AFR_4 AFR     5003   10006     0          0 TRUE         1
 8 AFR_4 AFR     5003   10007     0          0 TRUE         1
 9 AFR_5 AFR     5004   10008     0          0 TRUE         1
10 AFR_5 AFR     5004   10009     0          0 TRUE         1
# ℹ 104,960 more rows
…
# Here we schedule one Chimpanzee sample, 5 African samples, and 10 European samples
present_samples <- schedule_sampling(model, times = 0, list(chimp, 1), list(afr, 5), list(eur, 10))

# We also schedule the recording of one European sample between 50kya and 2kya,
# every 2000 years
times <- seq(40000, 2000, by = -2000)
emh_samples <- schedule_sampling(model, times, list(eur, 1))

# Because those functions produce nothing but a data frame, we can bind
# individual sampling schedules together
schedule <- rbind(nea_samples, present_samples, emh_samples)
schedule

# A tibble: 25 × 7
    time pop       n y_orig x_orig y     x    
   <int> <chr> <int> <lgl>  <lgl>  <lgl> <lgl>
 1 40000 NEA       1 NA     NA     NA    NA   
 2 70000 NEA       1 NA     NA     NA    NA   
 3     0 CHIMP     1 NA     NA     NA    NA   
 4     0 AFR       5 NA     NA     NA    NA   
 5     0 EUR      10 NA     NA     NA    NA   
 6  2000 EUR       1 NA     NA     NA    NA   
 7  4000 EUR       1 NA     NA     NA    NA   
 8  6000 EUR       1 NA     NA     NA    NA   
 9  8000 EUR       1 NA     NA     NA    NA   
10 10000 EUR       1 NA     NA     NA    NA   
# ℹ 15 more rows
…
# Get the table of all recorded samples in the tree sequence
ts_samples(ts)

# A tibble: 38 × 3
   name   time pop  
   <chr> <dbl> <chr>
 1 NEA_1 70000 NEA  
 2 EUR_1 40000 EUR  
 3 NEA_2 40000 NEA  
 4 EUR_2 38000 EUR  
 5 EUR_3 36000 EUR  
 6 EUR_4 34000 EUR  
 7 EUR_5 32000 EUR  
 8 EUR_6 30000 EUR  
 9 EUR_7 28000 EUR  
10 EUR_8 26000 EUR  
# ℹ 28 more rows
…
 [1] "NEA_1"   "EUR_1"   "NEA_2"   "EUR_2"   "EUR_3"   "EUR_4"   "EUR_5"  
 [8] "EUR_6"   "EUR_7"   "EUR_8"   "EUR_9"   "EUR_10"  "EUR_11"  "EUR_12" 
[15] "EUR_13"  "EUR_14"  "EUR_15"  "EUR_16"  "EUR_17"  "EUR_18"  "EUR_19" 
[22] "EUR_20"  "AFR_1"   "AFR_2"   "AFR_3"   "AFR_4"   "AFR_5"   "CHIMP_1"
[29] "EUR_21"  "EUR_22"  "EUR_23"  "EUR_24"  "EUR_25"  "EUR_26"  "EUR_27" 
[36] "EUR_28"  "EUR_29"  "EUR_30" 

pi_df$diversity <- ts_diversity(ts, sample_sets = pi_df$name)$diversity
pi_df

# A tibble: 38 × 4
   name   time pop   diversity
   <chr> <dbl> <chr>     <dbl>
 1 NEA_1 70000 NEA   0.0000431
 2 EUR_1 40000 EUR   0.000516 
 3 NEA_2 40000 NEA   0.0000410
 4 EUR_2 38000 EUR   0.000520 
 5 EUR_3 36000 EUR   0.000539 
 6 EUR_4 34000 EUR   0.000534 
 7 EUR_5 32000 EUR   0.000533 
 8 EUR_6 30000 EUR   0.000553 
 9 EUR_7 28000 EUR   0.000499 
10 EUR_8 26000 EUR   0.000506 
# ℹ 28 more rows
…
# A tibble: 5 × 5
  W     X     Y     Z             f4
  <chr> <chr> <chr> <chr>      <dbl>
1 AFR_1 AFR_1 NEA_1 CHIMP_1    0    
2 AFR_1 AFR_2 NEA_1 CHIMP_1   43.4  
3 AFR_1 AFR_3 NEA_1 CHIMP_1 -106.   
4 AFR_1 AFR_4 NEA_1 CHIMP_1   27.7  
5 AFR_1 AFR_5 NEA_1 CHIMP_1   -0.896

f4_eur <- lapply(sample_sets$EUR, function(x) ts_f4(ts, W = "AFR_1", X = x, Y = "NEA_1", Z = "CHIMP_1", mode = "branch")) %>% do.call(rbind, .)
f4_eur

# A tibble: 30 × 5
   W     X      Y     Z           f4
   <chr> <chr>  <chr> <chr>    <dbl>
 1 AFR_1 EUR_1  NEA_1 CHIMP_1  -853.
 2 AFR_1 EUR_2  NEA_1 CHIMP_1  -917.
 3 AFR_1 EUR_3  NEA_1 CHIMP_1  -588.
 4 AFR_1 EUR_4  NEA_1 CHIMP_1 -1100.
 5 AFR_1 EUR_5  NEA_1 CHIMP_1 -1331.
 6 AFR_1 EUR_6  NEA_1 CHIMP_1  -755.
 7 AFR_1 EUR_7  NEA_1 CHIMP_1  -760.
 8 AFR_1 EUR_8  NEA_1 CHIMP_1 -1171.
 9 AFR_1 EUR_9  NEA_1 CHIMP_1 -1127.
10 AFR_1 EUR_10 NEA_1 CHIMP_1 -1361.
# ℹ 20 more rows
…
Bonus 3: Trajectory of Neanderthal ancestry in Europe over time

There used to be a lot of controversy about the question of whether or not did Neanderthal ancestry proportion in Europeans decline or not over the past 40 thousand years (see figure 1 in this paper figure 2 in this paper).

Your simulated tree sequence contains a time-series of European individuals over time. Use the slendr function ts_f4ratio() to compute (and then plot) the proportion (commonly designated as alpha) of Neanderthal ancestry in Europe over time. Use \(f_4\)-ratio statistic of the following form:

ts_f4ratio(ts, X = <vector of ind. names>, A = "NEA_1", B = "NEA_2", C = "AFR_1", O = "CHIMP_1")

Click to see the solution

# Extract table with names and times of sampled Europeans (ancient and present day)
eur_inds <- ts_samples(ts) %>% filter(pop == "EUR")
eur_inds

# A tibble: 30 × 3
   name    time pop  
   <chr>  <dbl> <chr>
 1 EUR_1  40000 EUR  
 2 EUR_2  38000 EUR  
 3 EUR_3  36000 EUR  
 4 EUR_4  34000 EUR  
 5 EUR_5  32000 EUR  
 6 EUR_6  30000 EUR  
 7 EUR_7  28000 EUR  
 8 EUR_8  26000 EUR  
 9 EUR_9  24000 EUR  
10 EUR_10 22000 EUR  
# ℹ 20 more rows

# Compute f4-ration statistic (this will take ~30s) -- note that we can provide
# a vector of names for the X sample set to the `ts_f4ratio()` function
nea_ancestry <- ts_f4ratio(ts, X = eur_inds$name, A = "NEA_1", B = "NEA_2", C = "AFR_1", O = "CHIMP_1")

# Add the age of each sample to the table of proportions
nea_ancestry$time <- eur_inds$time
nea_ancestry

# A tibble: 30 × 7
   X      A     B     C     O        alpha  time
   <chr>  <chr> <chr> <chr> <chr>    <dbl> <dbl>
 1 EUR_1  NEA_1 NEA_2 AFR_1 CHIMP_1 0.0153 40000
 2 EUR_2  NEA_1 NEA_2 AFR_1 CHIMP_1 0.0170 38000
 3 EUR_3  NEA_1 NEA_2 AFR_1 CHIMP_1 0.0117 36000
 4 EUR_4  NEA_1 NEA_2 AFR_1 CHIMP_1 0.0201 34000
 5 EUR_5  NEA_1 NEA_2 AFR_1 CHIMP_1 0.0261 32000
 6 EUR_6  NEA_1 NEA_2 AFR_1 CHIMP_1 0.0132 30000
 7 EUR_7  NEA_1 NEA_2 AFR_1 CHIMP_1 0.0151 28000
 8 EUR_8  NEA_1 NEA_2 AFR_1 CHIMP_1 0.0243 26000
 9 EUR_9  NEA_1 NEA_2 AFR_1 CHIMP_1 0.0195 24000
10 EUR_10 NEA_1 NEA_2 AFR_1 CHIMP_1 0.0243 22000
# ℹ 20 more rows
…
