…
::: {.cell}

```{.r .cell-code}
# slendr provides a helper function which allows access to all the low-level
# components of every tree-sequence object
ts_table(ts, "nodes")
```

::: {.cell-output .cell-output-stdout}

```
# A tibble: 105,053 × 5
   node_id    ind_id pop_id  time time_tskit
     <int> <int[1d]>  <int> <dbl>      <dbl>
 1       0         0      0     0          0
 2       1         0      0     0          0
 3       2         1      0     0          0
 4       3         1      0     0          0
 5       4         2      0     0          0
 6       5         2      0     0          0
 7       6         3      0     0          0
 8       7         3      0     0          0
 9       8         4      0     0          0
10       9         4      0     0          0
# ℹ 105,043 more rows
```


:::

```{.r .cell-code}
ts_table(ts, "edges")
```

::: {.cell-output .cell-output-stdout}

```
# A tibble: 134,950 × 5
      id child parent  left   right
   <dbl> <int>  <int> <dbl>   <dbl>
 1     0 34631  48000     0 1000000
 2     1 38245  48000     0 1000000
 3     2 21116  48001     0 1000000
 4     3 30113  48001     0 1000000
 5     4 32113  48002     0 1000000
 6     5 37399  48002     0 1000000
 7     6 18398  48003     0 1000000
 8     7 23682  48003     0 1000000
 9     8  2519  48004     0 1000000
10     9  2766  48004     0 1000000
# ℹ 134,940 more rows
```


:::

```{.r .cell-code}
ts_table(ts, "individuals")
```

::: {.cell-output .cell-output-stdout}

```
# A tibble: 24,000 × 5
   ind_id  time    pop_id time_tskit sampled
    <dbl> <dbl> <int[1d]>  <dbl[1d]> <lgl>  
 1      0     0         0          0 TRUE   
 2      1     0         0          0 TRUE   
 3      2     0         0          0 TRUE   
 4      3     0         0          0 TRUE   
 5      4     0         0          0 TRUE   
 6      5     0         0          0 TRUE   
 7      6     0         0          0 TRUE   
 8      7     0         0          0 TRUE   
 9      8     0         0          0 TRUE   
10      9     0         0          0 TRUE   
# ℹ 23,990 more rows
```
…
:::

```{.r .cell-code}
# This function returns a table similar to the one produced by `ts_table(ts, "nodes")`
# above, except that it contains additional slendr metadata (names of individuals
# belonging to each node, spatial coordinates of nodes for spatial models, etc.).
# It's a bit more useful for analyzing tree-sequence data than the "low-level" functions.
ts_nodes(ts)
```

::: {.cell-output .cell-output-stdout}

```
# A tibble: 105,053 × 8
   name  pop   ind_id node_id  time time_tskit sampled pop_id
   <chr> <fct>  <dbl>   <int> <dbl>      <dbl> <lgl>    <int>
 1 AFR_1 AFR     5000   10000     0          0 TRUE         1
 2 AFR_1 AFR     5000   10001     0          0 TRUE         1
 3 AFR_2 AFR     5001   10002     0          0 TRUE         1
 4 AFR_2 AFR     5001   10003     0          0 TRUE         1
 5 AFR_3 AFR     5002   10004     0          0 TRUE         1
 6 AFR_3 AFR     5002   10005     0          0 TRUE         1
 7 AFR_4 AFR     5003   10006     0          0 TRUE         1
 8 AFR_4 AFR     5003   10007     0          0 TRUE         1
 9 AFR_5 AFR     5004   10008     0          0 TRUE         1
10 AFR_5 AFR     5004   10009     0          0 TRUE         1
# ℹ 105,043 more rows
```
…
# We also schedule the recording of one European sample between 50kya and 2kya,
# every 2000 years
times <- seq(40000, 2000, by = -2000)
emh_samples <- schedule_sampling(model, times, list(eur, 1))

# Because those functions produce nothing but a data frame, we can bind
# individual sampling schedules together
schedule <- rbind(nea_samples, present_samples, emh_samples)
schedule
```

::: {.cell-output .cell-output-stdout}

```
# A tibble: 25 × 7
    time pop       n y_orig x_orig y     x    
   <int> <chr> <int> <lgl>  <lgl>  <lgl> <lgl>
 1 40000 NEA       1 NA     NA     NA    NA   
 2 70000 NEA       1 NA     NA     NA    NA   
 3     0 CHIMP     1 NA     NA     NA    NA   
 4     0 AFR       5 NA     NA     NA    NA   
 5     0 EUR      10 NA     NA     NA    NA   
 6  2000 EUR       1 NA     NA     NA    NA   
 7  4000 EUR       1 NA     NA     NA    NA   
 8  6000 EUR       1 NA     NA     NA    NA   
 9  8000 EUR       1 NA     NA     NA    NA   
10 10000 EUR       1 NA     NA     NA    NA   
# ℹ 15 more rows
```
…
:::

```{.r .cell-code}
# Get the table of all recorded samples in the tree sequence
ts_samples(ts)
```

::: {.cell-output .cell-output-stdout}

```
# A tibble: 38 × 3
   name   time pop  
   <chr> <dbl> <chr>
 1 NEA_1 70000 NEA  
 2 EUR_1 40000 EUR  
 3 NEA_2 40000 NEA  
 4 EUR_2 38000 EUR  
 5 EUR_3 36000 EUR  
 6 EUR_4 34000 EUR  
 7 EUR_5 32000 EUR  
 8 EUR_6 30000 EUR  
 9 EUR_7 28000 EUR  
10 EUR_8 26000 EUR  
# ℹ 28 more rows
```
…
